<svg width="39" height="130" viewBox="0 0 39 130" fill="none" xmlns="http://www.w3.org/2000/svg">
<path d="M21.4355 129.167C15.0192 122.534 7.7981 117.214 0.691216 111.404C-1.16477 109.89 1.09636 107.386 3.01246 108.232C6.26268 109.657 9.37358 111.441 12.3413 113.469C8.47213 105.027 6.06126 95.4201 4.56284 86.8285C2.55658 75.3079 2.37974 63.3049 4.17325 51.734C7.15789 32.544 18.5806 8.16034 37.6065 0.0826243C38.6992 -0.377365 39.422 1.19953 38.7257 1.94705C31.7276 9.56156 24.7317 16.0177 19.8487 25.3578C15.0721 34.5025 11.9408 44.8532 10.8611 55.1138C9.72526 65.9604 11.0568 76.7298 13.7208 87.2631C15.954 96.0702 19.6956 104.101 22.9673 112.402C24.862 106.306 27.8413 100.504 31.9245 96.2333C34.3268 93.7234 38.3559 96.7301 36.7791 99.7821C34.3879 104.415 31.4979 108.547 29.7351 113.525C28.0961 118.14 27.3079 122.834 26.626 127.662C26.2986 129.989 22.9628 130.746 21.4355 129.167Z" fill="white"/>
</svg>
