<svg width="40" height="40" viewBox="0 0 40 40" fill="none" xmlns="http://www.w3.org/2000/svg">
<path d="M40 5.59996L34.3999 0L20 14.4L5.59996 0L0 5.59996L14.4 20L0 34.3999L5.59996 40L20 25.6L34.3999 40L40 34.3999L25.6 20L40 5.59996Z" fill="#798097"/>
<path d="M40 5.59996L34.3999 0L20 14.4L5.59996 0L0 5.59996L14.4 20L0 34.3999L5.59996 40L20 25.6L34.3999 40L40 34.3999L25.6 20L40 5.59996Z" fill="#F23F5F"/>
</svg>
